"NAME"	"USERCOLUMNS"	"DB2ADMIN"	0	"VARCHAR "	128	0	"N"	-1				"SYSIBM  "	"VARCHAR"	" "
"TBNAME"	"USERCOLUMNS"	"DB2ADMIN"	1	"VARCHAR "	128	0	"N"	-1				"SYSIBM  "	"VARCHAR"	" "
"STARTING"	"CL_SCHED"	"DB2ADMIN"	2	"TIME    "	3	0	"Y"	-1				"SYSIBM  "	"TIME"	" "
"TBCREATOR"	"USERCOLUMNS"	"DB2ADMIN"	2	"VARCHAR "	128	0	"N"	-1				"SYSIBM  "	"VARCHAR"	" "
"COLNO"	"USERCOLUMNS"	"DB2ADMIN"	3	"SMALLINT"	2	0	"N"	-1				"SYSIBM  "	"SMALLINT"	" "
"ENDING"	"CL_SCHED"	"DB2ADMIN"	3	"TIME    "	3	0	"Y"	-1				"SYSIBM  "	"TIME"	" "
"COLTYPE"	"USERCOLUMNS"	"DB2ADMIN"	4	"CHAR    "	8	0	"N"	-1				"SYSIBM  "	"CHARACTER"	" "
"CLASS_CODE"	"CL_SCHED"	"DB2ADMIN"	0	"CHAR    "	7	0	"Y"	-1				"SYSIBM  "	"CHARACTER"	" "
"DAY"	"CL_SCHED"	"DB2ADMIN"	1	"SMALLINT"	2	0	"Y"	-1				"SYSIBM  "	"SMALLINT"	" "
"DEPTNO"	"DEPARTMENT"	"DB2ADMIN"	0	"CHAR    "	3	0	"N"	14			1	"SYSIBM  "	"CHARACTER"	" "
"DEPTNAME"	"DEPARTMENT"	"DB2ADMIN"	1	"VARCHAR "	36	0	"N"	14				"SYSIBM  "	"VARCHAR"	" "
"MGRNO"	"DEPARTMENT"	"DB2ADMIN"	2	"CHAR    "	6	0	"Y"	9				"SYSIBM  "	"CHARACTER"	" "
"ADMRDEPT"	"DEPARTMENT"	"DB2ADMIN"	3	"CHAR    "	3	0	"N"	3				"SYSIBM  "	"CHARACTER"	" "
"LOCATION"	"DEPARTMENT"	"DB2ADMIN"	4	"CHAR    "	16	0	"Y"	1				"SYSIBM  "	"CHARACTER"	" "
"EMPNO"	"EMPLOYEE"	"DB2ADMIN"	0	"CHAR    "	6	0	"N"	42			1	"SYSIBM  "	"CHARACTER"	" "
"FIRSTNME"	"EMPLOYEE"	"DB2ADMIN"	1	"VARCHAR "	12	0	"N"	39				"SYSIBM  "	"VARCHAR"	" "
"MIDINIT"	"EMPLOYEE"	"DB2ADMIN"	2	"CHAR    "	1	0	"Y"	21				"SYSIBM  "	"CHARACTER"	" "
"LASTNAME"	"EMPLOYEE"	"DB2ADMIN"	3	"VARCHAR "	15	0	"N"	41				"SYSIBM  "	"VARCHAR"	" "
"WORKDEPT"	"EMPLOYEE"	"DB2ADMIN"	4	"CHAR    "	3	0	"Y"	8				"SYSIBM  "	"CHARACTER"	" "
"PHONENO"	"EMPLOYEE"	"DB2ADMIN"	5	"CHAR    "	4	0	"Y"	32				"SYSIBM  "	"CHARACTER"	" "
"HIREDATE"	"EMPLOYEE"	"DB2ADMIN"	6	"DATE    "	4	0	"Y"	36				"SYSIBM  "	"DATE"	" "
"JOB"	"EMPLOYEE"	"DB2ADMIN"	7	"CHAR    "	8	0	"Y"	8				"SYSIBM  "	"CHARACTER"	" "
"EDLEVEL"	"EMPLOYEE"	"DB2ADMIN"	8	"SMALLINT"	2	0	"N"	8				"SYSIBM  "	"SMALLINT"	" "
"SEX"	"EMPLOYEE"	"DB2ADMIN"	9	"CHAR    "	1	0	"Y"	2				"SYSIBM  "	"CHARACTER"	" "
"BIRTHDATE"	"EMPLOYEE"	"DB2ADMIN"	10	"DATE    "	4	0	"Y"	33				"SYSIBM  "	"DATE"	" "
"SALARY"	"EMPLOYEE"	"DB2ADMIN"	11	"DECIMAL "	9	2	"Y"	40				"SYSIBM  "	"DECIMAL"	" "
"BONUS"	"EMPLOYEE"	"DB2ADMIN"	12	"DECIMAL "	9	2	"Y"	8				"SYSIBM  "	"DECIMAL"	" "
"COMM"	"EMPLOYEE"	"DB2ADMIN"	13	"DECIMAL "	9	2	"Y"	32				"SYSIBM  "	"DECIMAL"	" "
"EMPNO"	"EMP_PHOTO"	"DB2ADMIN"	0	"CHAR    "	6	0	"N"	-1			1	"SYSIBM  "	"CHARACTER"	" "
"PHOTO_FORMAT"	"EMP_PHOTO"	"DB2ADMIN"	1	"VARCHAR "	10	0	"N"	-1			2	"SYSIBM  "	"VARCHAR"	" "
"PICTURE"	"EMP_PHOTO"	"DB2ADMIN"	2	"BLOB    "	-1	0	"Y"	-1				"SYSIBM  "	"BLOB"	" "
"EMPNO"	"EMP_RESUME"	"DB2ADMIN"	0	"CHAR    "	6	0	"N"	-1			1	"SYSIBM  "	"CHARACTER"	" "
"RESUME_FORMAT"	"EMP_RESUME"	"DB2ADMIN"	1	"VARCHAR "	10	0	"N"	-1			2	"SYSIBM  "	"VARCHAR"	" "
"RESUME"	"EMP_RESUME"	"DB2ADMIN"	2	"CLOB    "	5120	0	"Y"	-1				"SYSIBM  "	"CLOB"	" "
"PROJNO"	"PROJECT"	"DB2ADMIN"	0	"CHAR    "	6	0	"N"	-1			1	"SYSIBM  "	"CHARACTER"	" "
"PROJNAME"	"PROJECT"	"DB2ADMIN"	1	"VARCHAR "	24	0	"N"	-1		"''"		"SYSIBM  "	"VARCHAR"	" "
"DEPTNO"	"PROJECT"	"DB2ADMIN"	2	"CHAR    "	3	0	"N"	-1				"SYSIBM  "	"CHARACTER"	" "
"RESPEMP"	"PROJECT"	"DB2ADMIN"	3	"CHAR    "	6	0	"N"	-1				"SYSIBM  "	"CHARACTER"	" "
"PRSTAFF"	"PROJECT"	"DB2ADMIN"	4	"DECIMAL "	5	2	"Y"	-1				"SYSIBM  "	"DECIMAL"	" "
"PRSTDATE"	"PROJECT"	"DB2ADMIN"	5	"DATE    "	4	0	"Y"	-1				"SYSIBM  "	"DATE"	" "
"PRENDATE"	"PROJECT"	"DB2ADMIN"	6	"DATE    "	4	0	"Y"	-1				"SYSIBM  "	"DATE"	" "
"MAJPROJ"	"PROJECT"	"DB2ADMIN"	7	"CHAR    "	6	0	"Y"	-1				"SYSIBM  "	"CHARACTER"	" "
"PROJNO"	"PROJACT"	"DB2ADMIN"	0	"CHAR    "	6	0	"N"	-1			1	"SYSIBM  "	"CHARACTER"	" "
"ACTNO"	"PROJACT"	"DB2ADMIN"	1	"SMALLINT"	2	0	"N"	-1			2	"SYSIBM  "	"SMALLINT"	" "
"ACSTAFF"	"PROJACT"	"DB2ADMIN"	2	"DECIMAL "	5	2	"Y"	-1				"SYSIBM  "	"DECIMAL"	" "
"ACSTDATE"	"PROJACT"	"DB2ADMIN"	3	"DATE    "	4	0	"N"	-1			3	"SYSIBM  "	"DATE"	" "
"ACENDATE"	"PROJACT"	"DB2ADMIN"	4	"DATE    "	4	0	"Y"	-1				"SYSIBM  "	"DATE"	" "
"EMPNO"	"EMPPROJACT"	"DB2ADMIN"	0	"CHAR    "	6	0	"N"	-1				"SYSIBM  "	"CHARACTER"	" "
"PROJNO"	"EMPPROJACT"	"DB2ADMIN"	1	"CHAR    "	6	0	"N"	-1				"SYSIBM  "	"CHARACTER"	" "
"ACTNO"	"EMPPROJACT"	"DB2ADMIN"	2	"SMALLINT"	2	0	"N"	-1				"SYSIBM  "	"SMALLINT"	" "
"EMPTIME"	"EMPPROJACT"	"DB2ADMIN"	3	"DECIMAL "	5	2	"Y"	-1				"SYSIBM  "	"DECIMAL"	" "
"EMSTDATE"	"EMPPROJACT"	"DB2ADMIN"	4	"DATE    "	4	0	"Y"	-1				"SYSIBM  "	"DATE"	" "
"EMENDATE"	"EMPPROJACT"	"DB2ADMIN"	5	"DATE    "	4	0	"Y"	-1				"SYSIBM  "	"DATE"	" "
"ACTNO"	"ACT"	"DB2ADMIN"	0	"SMALLINT"	2	0	"N"	-1			1	"SYSIBM  "	"SMALLINT"	" "
"ACTKWD"	"ACT"	"DB2ADMIN"	1	"CHAR    "	6	0	"N"	-1				"SYSIBM  "	"CHARACTER"	" "
"ACTDESC"	"ACT"	"DB2ADMIN"	2	"VARCHAR "	20	0	"N"	-1				"SYSIBM  "	"VARCHAR"	" "
"RECEIVED"	"IN_TRAY"	"DB2ADMIN"	0	"TIMESTMP"	10	6	"Y"	-1				"SYSIBM  "	"TIMESTAMP"	" "
"SOURCE"	"IN_TRAY"	"DB2ADMIN"	1	"CHAR    "	8	0	"Y"	-1				"SYSIBM  "	"CHARACTER"	" "
"SUBJECT"	"IN_TRAY"	"DB2ADMIN"	2	"CHAR    "	64	0	"Y"	-1				"SYSIBM  "	"CHARACTER"	" "
"NOTE_TEXT"	"IN_TRAY"	"DB2ADMIN"	3	"VARCHAR "	3000	0	"Y"	-1				"SYSIBM  "	"VARCHAR"	" "
"DEPTNUMB"	"ORG"	"DB2ADMIN"	0	"SMALLINT"	2	0	"N"	-1				"SYSIBM  "	"SMALLINT"	" "
"DEPTNAME"	"ORG"	"DB2ADMIN"	1	"VARCHAR "	14	0	"Y"	-1				"SYSIBM  "	"VARCHAR"	" "
"MANAGER"	"ORG"	"DB2ADMIN"	2	"SMALLINT"	2	0	"Y"	-1				"SYSIBM  "	"SMALLINT"	" "
"DIVISION"	"ORG"	"DB2ADMIN"	3	"VARCHAR "	10	0	"Y"	-1				"SYSIBM  "	"VARCHAR"	" "
"LOCATION"	"ORG"	"DB2ADMIN"	4	"VARCHAR "	13	0	"Y"	-1				"SYSIBM  "	"VARCHAR"	" "
"ID"	"STAFF"	"DB2ADMIN"	0	"SMALLINT"	2	0	"N"	-1				"SYSIBM  "	"SMALLINT"	" "
"NAME"	"STAFF"	"DB2ADMIN"	1	"VARCHAR "	9	0	"Y"	-1				"SYSIBM  "	"VARCHAR"	" "
"DEPT"	"STAFF"	"DB2ADMIN"	2	"SMALLINT"	2	0	"Y"	-1				"SYSIBM  "	"SMALLINT"	" "
"JOB"	"STAFF"	"DB2ADMIN"	3	"CHAR    "	5	0	"Y"	-1				"SYSIBM  "	"CHARACTER"	" "
"YEARS"	"STAFF"	"DB2ADMIN"	4	"SMALLINT"	2	0	"Y"	-1				"SYSIBM  "	"SMALLINT"	" "
"SALARY"	"STAFF"	"DB2ADMIN"	5	"DECIMAL "	7	2	"Y"	-1				"SYSIBM  "	"DECIMAL"	" "
"COMM"	"STAFF"	"DB2ADMIN"	6	"DECIMAL "	7	2	"Y"	-1				"SYSIBM  "	"DECIMAL"	" "
"SALES_DATE"	"SALES"	"DB2ADMIN"	0	"DATE    "	4	0	"Y"	-1				"SYSIBM  "	"DATE"	" "
"SALES_PERSON"	"SALES"	"DB2ADMIN"	1	"VARCHAR "	15	0	"Y"	-1				"SYSIBM  "	"VARCHAR"	" "
"REGION"	"SALES"	"DB2ADMIN"	2	"VARCHAR "	15	0	"Y"	-1				"SYSIBM  "	"VARCHAR"	" "
"SALES"	"SALES"	"DB2ADMIN"	3	"INTEGER "	4	0	"Y"	-1				"SYSIBM  "	"INTEGER"	" "
"DEPTNO"	"VDEPT"	"DB2ADMIN"	0	"CHAR    "	3	0	"N"	-1				"SYSIBM  "	"CHARACTER"	" "
"DEPTNAME"	"VDEPT"	"DB2ADMIN"	1	"VARCHAR "	36	0	"N"	-1				"SYSIBM  "	"VARCHAR"	" "
"MGRNO"	"VDEPT"	"DB2ADMIN"	2	"CHAR    "	6	0	"Y"	-1				"SYSIBM  "	"CHARACTER"	" "
"ADMRDEPT"	"VDEPT"	"DB2ADMIN"	3	"CHAR    "	3	0	"N"	-1				"SYSIBM  "	"CHARACTER"	" "
"DEPTNO"	"VHDEPT"	"DB2ADMIN"	0	"CHAR    "	3	0	"N"	-1				"SYSIBM  "	"CHARACTER"	" "
"DEPTNAME"	"VHDEPT"	"DB2ADMIN"	1	"VARCHAR "	36	0	"N"	-1				"SYSIBM  "	"VARCHAR"	" "
"MGRNO"	"VHDEPT"	"DB2ADMIN"	2	"CHAR    "	6	0	"Y"	-1				"SYSIBM  "	"CHARACTER"	" "
"ADMRDEPT"	"VHDEPT"	"DB2ADMIN"	3	"CHAR    "	3	0	"N"	-1				"SYSIBM  "	"CHARACTER"	" "
"LOCATION"	"VHDEPT"	"DB2ADMIN"	4	"CHAR    "	16	0	"Y"	-1				"SYSIBM  "	"CHARACTER"	" "
"EMPNO"	"VEMP"	"DB2ADMIN"	0	"CHAR    "	6	0	"N"	-1				"SYSIBM  "	"CHARACTER"	" "
"FIRSTNME"	"VEMP"	"DB2ADMIN"	1	"VARCHAR "	12	0	"N"	-1				"SYSIBM  "	"VARCHAR"	" "
"MIDINIT"	"VEMP"	"DB2ADMIN"	2	"CHAR    "	1	0	"Y"	-1				"SYSIBM  "	"CHARACTER"	" "
"LASTNAME"	"VEMP"	"DB2ADMIN"	3	"VARCHAR "	15	0	"N"	-1				"SYSIBM  "	"VARCHAR"	" "
"WORKDEPT"	"VEMP"	"DB2ADMIN"	4	"CHAR    "	3	0	"Y"	-1				"SYSIBM  "	"CHARACTER"	" "
"PROJNO"	"VPROJ"	"DB2ADMIN"	0	"CHAR    "	6	0	"N"	-1				"SYSIBM  "	"CHARACTER"	" "
"PROJNAME"	"VPROJ"	"DB2ADMIN"	1	"VARCHAR "	24	0	"N"	-1				"SYSIBM  "	"VARCHAR"	" "
"DEPTNO"	"VPROJ"	"DB2ADMIN"	2	"CHAR    "	3	0	"N"	-1				"SYSIBM  "	"CHARACTER"	" "
"RESPEMP"	"VPROJ"	"DB2ADMIN"	3	"CHAR    "	6	0	"N"	-1				"SYSIBM  "	"CHARACTER"	" "
"PRSTAFF"	"VPROJ"	"DB2ADMIN"	4	"DECIMAL "	5	2	"Y"	-1				"SYSIBM  "	"DECIMAL"	" "
"PRSTDATE"	"VPROJ"	"DB2ADMIN"	5	"DATE    "	4	0	"Y"	-1				"SYSIBM  "	"DATE"	" "
"PRENDATE"	"VPROJ"	"DB2ADMIN"	6	"DATE    "	4	0	"Y"	-1				"SYSIBM  "	"DATE"	" "
"MAJPROJ"	"VPROJ"	"DB2ADMIN"	7	"CHAR    "	6	0	"Y"	-1				"SYSIBM  "	"CHARACTER"	" "
"ACTNO"	"VACT"	"DB2ADMIN"	0	"SMALLINT"	2	0	"N"	-1				"SYSIBM  "	"SMALLINT"	" "
"ACTKWD"	"VACT"	"DB2ADMIN"	1	"CHAR    "	6	0	"N"	-1				"SYSIBM  "	"CHARACTER"	" "
"ACTDESC"	"VACT"	"DB2ADMIN"	2	"VARCHAR "	20	0	"N"	-1				"SYSIBM  "	"VARCHAR"	" "
"PROJNO"	"VPROJACT"	"DB2ADMIN"	0	"CHAR    "	6	0	"N"	-1				"SYSIBM  "	"CHARACTER"	" "
"ACTNO"	"VPROJACT"	"DB2ADMIN"	1	"SMALLINT"	2	0	"N"	-1				"SYSIBM  "	"SMALLINT"	" "
"ACSTAFF"	"VPROJACT"	"DB2ADMIN"	2	"DECIMAL "	5	2	"Y"	-1				"SYSIBM  "	"DECIMAL"	" "
"ACSTDATE"	"VPROJACT"	"DB2ADMIN"	3	"DATE    "	4	0	"N"	-1				"SYSIBM  "	"DATE"	" "
"ACENDATE"	"VPROJACT"	"DB2ADMIN"	4	"DATE    "	4	0	"Y"	-1				"SYSIBM  "	"DATE"	" "
"EMPNO"	"VEMPPROJACT"	"DB2ADMIN"	0	"CHAR    "	6	0	"N"	-1				"SYSIBM  "	"CHARACTER"	" "
"PROJNO"	"VEMPPROJACT"	"DB2ADMIN"	1	"CHAR    "	6	0	"N"	-1				"SYSIBM  "	"CHARACTER"	" "
"ACTNO"	"VEMPPROJACT"	"DB2ADMIN"	2	"SMALLINT"	2	0	"N"	-1				"SYSIBM  "	"SMALLINT"	" "
"EMPTIME"	"VEMPPROJACT"	"DB2ADMIN"	3	"DECIMAL "	5	2	"Y"	-1				"SYSIBM  "	"DECIMAL"	" "
"EMSTDATE"	"VEMPPROJACT"	"DB2ADMIN"	4	"DATE    "	4	0	"Y"	-1				"SYSIBM  "	"DATE"	" "
"EMENDATE"	"VEMPPROJACT"	"DB2ADMIN"	5	"DATE    "	4	0	"Y"	-1				"SYSIBM  "	"DATE"	" "
"DEPTNO"	"VDEPMG1"	"DB2ADMIN"	0	"CHAR    "	3	0	"N"	-1				"SYSIBM  "	"CHARACTER"	" "
"DEPTNAME"	"VDEPMG1"	"DB2ADMIN"	1	"VARCHAR "	36	0	"N"	-1				"SYSIBM  "	"VARCHAR"	" "
"MGRNO"	"VDEPMG1"	"DB2ADMIN"	2	"CHAR    "	6	0	"Y"	-1				"SYSIBM  "	"CHARACTER"	" "
"FIRSTNME"	"VDEPMG1"	"DB2ADMIN"	3	"VARCHAR "	12	0	"Y"	-1				"SYSIBM  "	"VARCHAR"	" "
"MIDINIT"	"VDEPMG1"	"DB2ADMIN"	4	"CHAR    "	1	0	"Y"	-1				"SYSIBM  "	"CHARACTER"	" "
"LASTNAME"	"VDEPMG1"	"DB2ADMIN"	5	"VARCHAR "	15	0	"Y"	-1				"SYSIBM  "	"VARCHAR"	" "
"ADMRDEPT"	"VDEPMG1"	"DB2ADMIN"	6	"CHAR    "	3	0	"N"	-1				"SYSIBM  "	"CHARACTER"	" "
"DEPTNO"	"VEMPDPT1"	"DB2ADMIN"	0	"CHAR    "	3	0	"Y"	-1				"SYSIBM  "	"CHARACTER"	" "
"DEPTNAME"	"VEMPDPT1"	"DB2ADMIN"	1	"VARCHAR "	36	0	"Y"	-1				"SYSIBM  "	"VARCHAR"	" "
"EMPNO"	"VEMPDPT1"	"DB2ADMIN"	2	"CHAR    "	6	0	"N"	-1				"SYSIBM  "	"CHARACTER"	" "
"FRSTINIT"	"VEMPDPT1"	"DB2ADMIN"	3	"CHAR    "	1	0	"N"	-1				"SYSIBM  "	"CHARACTER"	" "
"MIDINIT"	"VEMPDPT1"	"DB2ADMIN"	4	"CHAR    "	1	0	"Y"	-1				"SYSIBM  "	"CHARACTER"	" "
"LASTNAME"	"VEMPDPT1"	"DB2ADMIN"	5	"VARCHAR "	15	0	"N"	-1				"SYSIBM  "	"VARCHAR"	" "
"WORKDEPT"	"VEMPDPT1"	"DB2ADMIN"	6	"CHAR    "	3	0	"Y"	-1				"SYSIBM  "	"CHARACTER"	" "
"DEPT1NO"	"VASTRDE1"	"DB2ADMIN"	0	"CHAR    "	3	0	"N"	-1				"SYSIBM  "	"CHARACTER"	" "
"DEPT1NAM"	"VASTRDE1"	"DB2ADMIN"	1	"VARCHAR "	36	0	"N"	-1				"SYSIBM  "	"VARCHAR"	" "
"EMP1NO"	"VASTRDE1"	"DB2ADMIN"	2	"CHAR    "	6	0	"Y"	-1				"SYSIBM  "	"CHARACTER"	" "
"EMP1FN"	"VASTRDE1"	"DB2ADMIN"	3	"VARCHAR "	12	0	"Y"	-1				"SYSIBM  "	"VARCHAR"	" "
"EMP1MI"	"VASTRDE1"	"DB2ADMIN"	4	"CHAR    "	1	0	"Y"	-1				"SYSIBM  "	"CHARACTER"	" "
"EMP1LN"	"VASTRDE1"	"DB2ADMIN"	5	"VARCHAR "	15	0	"Y"	-1				"SYSIBM  "	"VARCHAR"	" "
"TYPE2"	"VASTRDE1"	"DB2ADMIN"	6	"VARCHAR "	1	0	"N"	-1				"SYSIBM  "	"VARCHAR"	" "
"DEPT2NO"	"VASTRDE1"	"DB2ADMIN"	7	"CHAR    "	3	0	"N"	-1				"SYSIBM  "	"CHARACTER"	" "
"DEPT2NAM"	"VASTRDE1"	"DB2ADMIN"	8	"VARCHAR "	36	0	"N"	-1				"SYSIBM  "	"VARCHAR"	" "
"EMP2NO"	"VASTRDE1"	"DB2ADMIN"	9	"CHAR    "	6	0	"Y"	-1				"SYSIBM  "	"CHARACTER"	" "
"EMP2FN"	"VASTRDE1"	"DB2ADMIN"	10	"VARCHAR "	12	0	"Y"	-1				"SYSIBM  "	"VARCHAR"	" "
"EMP2MI"	"VASTRDE1"	"DB2ADMIN"	11	"CHAR    "	1	0	"Y"	-1				"SYSIBM  "	"CHARACTER"	" "
"EMP2LN"	"VASTRDE1"	"DB2ADMIN"	12	"VARCHAR "	15	0	"Y"	-1				"SYSIBM  "	"VARCHAR"	" "
"DEPT1NO"	"VASTRDE2"	"DB2ADMIN"	0	"CHAR    "	3	0	"N"	-1				"SYSIBM  "	"CHARACTER"	" "
"DEPT1NAM"	"VASTRDE2"	"DB2ADMIN"	1	"VARCHAR "	36	0	"N"	-1				"SYSIBM  "	"VARCHAR"	" "
"EMP1NO"	"VASTRDE2"	"DB2ADMIN"	2	"CHAR    "	6	0	"Y"	-1				"SYSIBM  "	"CHARACTER"	" "
"EMP1FN"	"VASTRDE2"	"DB2ADMIN"	3	"VARCHAR "	12	0	"Y"	-1				"SYSIBM  "	"VARCHAR"	" "
"EMP1MI"	"VASTRDE2"	"DB2ADMIN"	4	"CHAR    "	1	0	"Y"	-1				"SYSIBM  "	"CHARACTER"	" "
"EMP1LN"	"VASTRDE2"	"DB2ADMIN"	5	"VARCHAR "	15	0	"Y"	-1				"SYSIBM  "	"VARCHAR"	" "
"TYPE2"	"VASTRDE2"	"DB2ADMIN"	6	"VARCHAR "	1	0	"N"	-1				"SYSIBM  "	"VARCHAR"	" "
"DEPT2NO"	"VASTRDE2"	"DB2ADMIN"	7	"CHAR    "	3	0	"N"	-1				"SYSIBM  "	"CHARACTER"	" "
"DEPT2NAM"	"VASTRDE2"	"DB2ADMIN"	8	"VARCHAR "	36	0	"N"	-1				"SYSIBM  "	"VARCHAR"	" "
"EMP2NO"	"VASTRDE2"	"DB2ADMIN"	9	"CHAR    "	6	0	"N"	-1				"SYSIBM  "	"CHARACTER"	" "
"EMP2FN"	"VASTRDE2"	"DB2ADMIN"	10	"VARCHAR "	12	0	"N"	-1				"SYSIBM  "	"VARCHAR"	" "
"EMP2MI"	"VASTRDE2"	"DB2ADMIN"	11	"CHAR    "	1	0	"Y"	-1				"SYSIBM  "	"CHARACTER"	" "
"EMP2LN"	"VASTRDE2"	"DB2ADMIN"	12	"VARCHAR "	15	0	"N"	-1				"SYSIBM  "	"VARCHAR"	" "
"PROJNO"	"VPROJRE1"	"DB2ADMIN"	0	"CHAR    "	6	0	"N"	-1				"SYSIBM  "	"CHARACTER"	" "
"PROJNAME"	"VPROJRE1"	"DB2ADMIN"	1	"VARCHAR "	24	0	"N"	-1				"SYSIBM  "	"VARCHAR"	" "
"PROJDEP"	"VPROJRE1"	"DB2ADMIN"	2	"CHAR    "	3	0	"N"	-1				"SYSIBM  "	"CHARACTER"	" "
"RESPEMP"	"VPROJRE1"	"DB2ADMIN"	3	"CHAR    "	6	0	"N"	-1				"SYSIBM  "	"CHARACTER"	" "
"FIRSTNME"	"VPROJRE1"	"DB2ADMIN"	4	"VARCHAR "	12	0	"N"	-1				"SYSIBM  "	"VARCHAR"	" "
"MIDINIT"	"VPROJRE1"	"DB2ADMIN"	5	"CHAR    "	1	0	"Y"	-1				"SYSIBM  "	"CHARACTER"	" "
"LASTNAME"	"VPROJRE1"	"DB2ADMIN"	6	"VARCHAR "	15	0	"N"	-1				"SYSIBM  "	"VARCHAR"	" "
"MAJPROJ"	"VPROJRE1"	"DB2ADMIN"	7	"CHAR    "	6	0	"Y"	-1				"SYSIBM  "	"CHARACTER"	" "
"PROJ1NO"	"VPSTRDE1"	"DB2ADMIN"	0	"CHAR    "	6	0	"N"	-1				"SYSIBM  "	"CHARACTER"	" "
"PROJ1NAME"	"VPSTRDE1"	"DB2ADMIN"	1	"VARCHAR "	24	0	"N"	-1				"SYSIBM  "	"VARCHAR"	" "
"RESP1NO"	"VPSTRDE1"	"DB2ADMIN"	2	"CHAR    "	6	0	"N"	-1				"SYSIBM  "	"CHARACTER"	" "
"RESP1FN"	"VPSTRDE1"	"DB2ADMIN"	3	"VARCHAR "	12	0	"N"	-1				"SYSIBM  "	"VARCHAR"	" "
"RESP1MI"	"VPSTRDE1"	"DB2ADMIN"	4	"CHAR    "	1	0	"Y"	-1				"SYSIBM  "	"CHARACTER"	" "
"RESP1LN"	"VPSTRDE1"	"DB2ADMIN"	5	"VARCHAR "	15	0	"N"	-1				"SYSIBM  "	"VARCHAR"	" "
"PROJ2NO"	"VPSTRDE1"	"DB2ADMIN"	6	"CHAR    "	6	0	"N"	-1				"SYSIBM  "	"CHARACTER"	" "
"PROJ2NAME"	"VPSTRDE1"	"DB2ADMIN"	7	"VARCHAR "	24	0	"N"	-1				"SYSIBM  "	"VARCHAR"	" "
"RESP2NO"	"VPSTRDE1"	"DB2ADMIN"	8	"CHAR    "	6	0	"N"	-1				"SYSIBM  "	"CHARACTER"	" "
"RESP2FN"	"VPSTRDE1"	"DB2ADMIN"	9	"VARCHAR "	12	0	"N"	-1				"SYSIBM  "	"VARCHAR"	" "
"RESP2MI"	"VPSTRDE1"	"DB2ADMIN"	10	"CHAR    "	1	0	"Y"	-1				"SYSIBM  "	"CHARACTER"	" "
"RESP2LN"	"VPSTRDE1"	"DB2ADMIN"	11	"VARCHAR "	15	0	"N"	-1				"SYSIBM  "	"VARCHAR"	" "
"PROJ1NO"	"VPSTRDE2"	"DB2ADMIN"	0	"CHAR    "	6	0	"N"	-1				"SYSIBM  "	"CHARACTER"	" "
"PROJ1NAME"	"VPSTRDE2"	"DB2ADMIN"	1	"VARCHAR "	24	0	"N"	-1				"SYSIBM  "	"VARCHAR"	" "
"RESP1NO"	"VPSTRDE2"	"DB2ADMIN"	2	"CHAR    "	6	0	"N"	-1				"SYSIBM  "	"CHARACTER"	" "
"RESP1FN"	"VPSTRDE2"	"DB2ADMIN"	3	"VARCHAR "	12	0	"N"	-1				"SYSIBM  "	"VARCHAR"	" "
"RESP1MI"	"VPSTRDE2"	"DB2ADMIN"	4	"CHAR    "	1	0	"Y"	-1				"SYSIBM  "	"CHARACTER"	" "
"RESP1LN"	"VPSTRDE2"	"DB2ADMIN"	5	"VARCHAR "	15	0	"N"	-1				"SYSIBM  "	"VARCHAR"	" "
"PROJ2NO"	"VPSTRDE2"	"DB2ADMIN"	6	"CHAR    "	6	0	"N"	-1				"SYSIBM  "	"CHARACTER"	" "
"PROJ2NAME"	"VPSTRDE2"	"DB2ADMIN"	7	"VARCHAR "	24	0	"N"	-1				"SYSIBM  "	"VARCHAR"	" "
"RESP2NO"	"VPSTRDE2"	"DB2ADMIN"	8	"CHAR    "	6	0	"N"	-1				"SYSIBM  "	"CHARACTER"	" "
"RESP2FN"	"VPSTRDE2"	"DB2ADMIN"	9	"VARCHAR "	12	0	"N"	-1				"SYSIBM  "	"VARCHAR"	" "
"RESP2MI"	"VPSTRDE2"	"DB2ADMIN"	10	"CHAR    "	1	0	"Y"	-1				"SYSIBM  "	"CHARACTER"	" "
"RESP2LN"	"VPSTRDE2"	"DB2ADMIN"	11	"VARCHAR "	15	0	"N"	-1				"SYSIBM  "	"VARCHAR"	" "
"PROJNO"	"VFORPLA"	"DB2ADMIN"	0	"CHAR    "	6	0	"N"	-1				"SYSIBM  "	"CHARACTER"	" "
"PROJNAME"	"VFORPLA"	"DB2ADMIN"	1	"VARCHAR "	24	0	"N"	-1				"SYSIBM  "	"VARCHAR"	" "
"RESPEMP"	"VFORPLA"	"DB2ADMIN"	2	"CHAR    "	6	0	"N"	-1				"SYSIBM  "	"CHARACTER"	" "
"PROJDEP"	"VFORPLA"	"DB2ADMIN"	3	"CHAR    "	3	0	"N"	-1				"SYSIBM  "	"CHARACTER"	" "
"FRSTINIT"	"VFORPLA"	"DB2ADMIN"	4	"CHAR    "	1	0	"N"	-1				"SYSIBM  "	"CHARACTER"	" "
"MIDINIT"	"VFORPLA"	"DB2ADMIN"	5	"CHAR    "	1	0	"Y"	-1				"SYSIBM  "	"CHARACTER"	" "
"LASTNAME"	"VFORPLA"	"DB2ADMIN"	6	"VARCHAR "	15	0	"N"	-1				"SYSIBM  "	"VARCHAR"	" "
"PROJNO"	"VSTAFAC1"	"DB2ADMIN"	0	"CHAR    "	6	0	"N"	-1				"SYSIBM  "	"CHARACTER"	" "
"ACTNO"	"VSTAFAC1"	"DB2ADMIN"	1	"SMALLINT"	2	0	"N"	-1				"SYSIBM  "	"SMALLINT"	" "
"ACTDESC"	"VSTAFAC1"	"DB2ADMIN"	2	"VARCHAR "	20	0	"N"	-1				"SYSIBM  "	"VARCHAR"	" "
"EMPNO"	"VSTAFAC1"	"DB2ADMIN"	3	"VARCHAR "	1	0	"N"	-1				"SYSIBM  "	"VARCHAR"	" "
"FIRSTNME"	"VSTAFAC1"	"DB2ADMIN"	4	"VARCHAR "	1	0	"N"	-1				"SYSIBM  "	"VARCHAR"	" "
"MIDINIT"	"VSTAFAC1"	"DB2ADMIN"	5	"VARCHAR "	1	0	"N"	-1				"SYSIBM  "	"VARCHAR"	" "
"LASTNAME"	"VSTAFAC1"	"DB2ADMIN"	6	"VARCHAR "	1	0	"N"	-1				"SYSIBM  "	"VARCHAR"	" "
"EMPTIME"	"VSTAFAC1"	"DB2ADMIN"	7	"DECIMAL "	5	2	"Y"	-1				"SYSIBM  "	"DECIMAL"	" "
"STDATE"	"VSTAFAC1"	"DB2ADMIN"	8	"DATE    "	4	0	"N"	-1				"SYSIBM  "	"DATE"	" "
"ENDATE"	"VSTAFAC1"	"DB2ADMIN"	9	"DATE    "	4	0	"Y"	-1				"SYSIBM  "	"DATE"	" "
"TYPE"	"VSTAFAC1"	"DB2ADMIN"	10	"VARCHAR "	1	0	"N"	-1				"SYSIBM  "	"VARCHAR"	" "
"PROJNO"	"VSTAFAC2"	"DB2ADMIN"	0	"CHAR    "	6	0	"N"	-1				"SYSIBM  "	"CHARACTER"	" "
"ACTNO"	"VSTAFAC2"	"DB2ADMIN"	1	"SMALLINT"	2	0	"N"	-1				"SYSIBM  "	"SMALLINT"	" "
"ACTDESC"	"VSTAFAC2"	"DB2ADMIN"	2	"VARCHAR "	20	0	"N"	-1				"SYSIBM  "	"VARCHAR"	" "
"EMPNO"	"VSTAFAC2"	"DB2ADMIN"	3	"CHAR    "	6	0	"N"	-1				"SYSIBM  "	"CHARACTER"	" "
"FIRSTNME"	"VSTAFAC2"	"DB2ADMIN"	4	"VARCHAR "	12	0	"N"	-1				"SYSIBM  "	"VARCHAR"	" "
"MIDINIT"	"VSTAFAC2"	"DB2ADMIN"	5	"CHAR    "	1	0	"Y"	-1				"SYSIBM  "	"CHARACTER"	" "
"LASTNAME"	"VSTAFAC2"	"DB2ADMIN"	6	"VARCHAR "	15	0	"N"	-1				"SYSIBM  "	"VARCHAR"	" "
"EMPTIME"	"VSTAFAC2"	"DB2ADMIN"	7	"DECIMAL "	5	2	"Y"	-1				"SYSIBM  "	"DECIMAL"	" "
"STDATE"	"VSTAFAC2"	"DB2ADMIN"	8	"DATE    "	4	0	"Y"	-1				"SYSIBM  "	"DATE"	" "
"ENDATE"	"VSTAFAC2"	"DB2ADMIN"	9	"DATE    "	4	0	"Y"	-1				"SYSIBM  "	"DATE"	" "
"TYPE"	"VSTAFAC2"	"DB2ADMIN"	10	"VARCHAR "	1	0	"N"	-1				"SYSIBM  "	"VARCHAR"	" "
"LASTNAME"	"VPHONE"	"DB2ADMIN"	0	"VARCHAR "	15	0	"N"	-1				"SYSIBM  "	"VARCHAR"	" "
"FIRSTNAME"	"VPHONE"	"DB2ADMIN"	1	"VARCHAR "	12	0	"N"	-1				"SYSIBM  "	"VARCHAR"	" "
"MIDDLEINITIAL"	"VPHONE"	"DB2ADMIN"	2	"CHAR    "	1	0	"Y"	-1				"SYSIBM  "	"CHARACTER"	" "
"PHONENUMBER"	"VPHONE"	"DB2ADMIN"	3	"VARCHAR "	4	0	"N"	-1				"SYSIBM  "	"VARCHAR"	" "
"EMPLOYEENUMBER"	"VPHONE"	"DB2ADMIN"	4	"CHAR    "	6	0	"N"	-1				"SYSIBM  "	"CHARACTER"	" "
"DEPTNUMBER"	"VPHONE"	"DB2ADMIN"	5	"CHAR    "	3	0	"N"	-1				"SYSIBM  "	"CHARACTER"	" "
"DEPTNAME"	"VPHONE"	"DB2ADMIN"	6	"VARCHAR "	36	0	"N"	-1				"SYSIBM  "	"VARCHAR"	" "
"EMPLOYEENUMBER"	"VEMPLP"	"DB2ADMIN"	0	"CHAR    "	6	0	"N"	-1				"SYSIBM  "	"CHARACTER"	" "
"PHONENUMBER"	"VEMPLP"	"DB2ADMIN"	1	"CHAR    "	4	0	"Y"	-1				"SYSIBM  "	"CHARACTER"	" "
"ID"	"STAFFG"	"DB2ADMIN"	0	"SMALLINT"	2	0	"N"	-1				"SYSIBM  "	"SMALLINT"	" "
"NAME"	"STAFFG"	"DB2ADMIN"	1	"VARGRAPH"	9	0	"Y"	-1				"SYSIBM  "	"VARGRAPHIC"	" "
"DEPT"	"STAFFG"	"DB2ADMIN"	2	"SMALLINT"	2	0	"Y"	-1				"SYSIBM  "	"SMALLINT"	" "
"JOB"	"STAFFG"	"DB2ADMIN"	3	"GRAPHIC "	5	0	"Y"	-1				"SYSIBM  "	"GRAPHIC"	" "
"YEARS"	"STAFFG"	"DB2ADMIN"	4	"SMALLINT"	2	0	"Y"	-1				"SYSIBM  "	"SMALLINT"	" "
"SALARY"	"STAFFG"	"DB2ADMIN"	5	"DECIMAL "	9	0	"Y"	-1				"SYSIBM  "	"DECIMAL"	" "
"COMM"	"STAFFG"	"DB2ADMIN"	6	"DECIMAL "	9	0	"Y"	-1				"SYSIBM  "	"DECIMAL"	" "
"WORKDEPT"	"ADEFUSR"	"DB2ADMIN"	0	"CHAR    "	3	0	"Y"	8				"SYSIBM  "	"CHARACTER"	" "
"NO_OF_EMPLOYEES"	"ADEFUSR"	"DB2ADMIN"	1	"INTEGER "	4	0	"N"	6				"SYSIBM  "	"INTEGER"	" "
"EMPNO"	"EMPMDC"	"DB2ADMIN"	0	"INTEGER "	4	0	"Y"	9984				"SYSIBM  "	"INTEGER"	" "
"DEPT"	"EMPMDC"	"DB2ADMIN"	1	"INTEGER "	4	0	"Y"	5				"SYSIBM  "	"INTEGER"	" "
"DIV"	"EMPMDC"	"DB2ADMIN"	2	"INTEGER "	4	0	"Y"	10				"SYSIBM  "	"INTEGER"	" "
"PID"	"PRODUCT"	"DB2ADMIN"	0	"VARCHAR "	10	0	"N"	4			1	"SYSIBM  "	"VARCHAR"	" "
"NAME"	"PRODUCT"	"DB2ADMIN"	1	"VARCHAR "	128	0	"Y"	4				"SYSIBM  "	"VARCHAR"	" "
"PRICE"	"PRODUCT"	"DB2ADMIN"	2	"DECIMAL "	30	2	"Y"	4				"SYSIBM  "	"DECIMAL"	" "
"PROMOPRICE"	"PRODUCT"	"DB2ADMIN"	3	"DECIMAL "	30	2	"Y"	4				"SYSIBM  "	"DECIMAL"	" "
"PROMOSTART"	"PRODUCT"	"DB2ADMIN"	4	"DATE    "	4	0	"Y"	4				"SYSIBM  "	"DATE"	" "
"PROMOEND"	"PRODUCT"	"DB2ADMIN"	5	"DATE    "	4	0	"Y"	4				"SYSIBM  "	"DATE"	" "
"DESCRIPTION"	"PRODUCT"	"DB2ADMIN"	6	"XML     "	0	0	"Y"	-1				"SYSIBM  "	"XML"	" "
"PID"	"INVENTORY"	"DB2ADMIN"	0	"VARCHAR "	10	0	"N"	-1			1	"SYSIBM  "	"VARCHAR"	" "
"QUANTITY"	"INVENTORY"	"DB2ADMIN"	1	"INTEGER "	4	0	"Y"	-1				"SYSIBM  "	"INTEGER"	" "
"LOCATION"	"INVENTORY"	"DB2ADMIN"	2	"VARCHAR "	128	0	"Y"	-1				"SYSIBM  "	"VARCHAR"	" "
"CID"	"CUSTOMER"	"DB2ADMIN"	0	"BIGINT  "	8	0	"N"	6			1	"SYSIBM  "	"BIGINT"	" "
"INFO"	"CUSTOMER"	"DB2ADMIN"	1	"XML     "	0	0	"Y"	-1				"SYSIBM  "	"XML"	" "
"HISTORY"	"CUSTOMER"	"DB2ADMIN"	2	"XML     "	0	0	"Y"	-1				"SYSIBM  "	"XML"	" "
"POID"	"PURCHASEORDER"	"DB2ADMIN"	0	"BIGINT  "	8	0	"N"	-1			1	"SYSIBM  "	"BIGINT"	" "
"STATUS"	"PURCHASEORDER"	"DB2ADMIN"	1	"VARCHAR "	10	0	"N"	-1		"'Unshipped'"		"SYSIBM  "	"VARCHAR"	" "
"CUSTID"	"PURCHASEORDER"	"DB2ADMIN"	2	"BIGINT  "	8	0	"Y"	-1				"SYSIBM  "	"BIGINT"	" "
"ORDERDATE"	"PURCHASEORDER"	"DB2ADMIN"	3	"DATE    "	4	0	"Y"	-1				"SYSIBM  "	"DATE"	" "
"PORDER"	"PURCHASEORDER"	"DB2ADMIN"	4	"XML     "	0	0	"Y"	-1				"SYSIBM  "	"XML"	" "
"COMMENTS"	"PURCHASEORDER"	"DB2ADMIN"	5	"VARCHAR "	1000	0	"Y"	-1				"SYSIBM  "	"VARCHAR"	" "
"NAME"	"CATALOG"	"DB2ADMIN"	0	"VARCHAR "	128	0	"N"	-1			1	"SYSIBM  "	"VARCHAR"	" "
"CATLOG"	"CATALOG"	"DB2ADMIN"	1	"XML     "	0	0	"Y"	-1				"SYSIBM  "	"XML"	" "
"SID"	"SUPPLIERS"	"DB2ADMIN"	0	"VARCHAR "	10	0	"N"	-1			1	"SYSIBM  "	"VARCHAR"	" "
"ADDR"	"SUPPLIERS"	"DB2ADMIN"	1	"XML     "	0	0	"Y"	-1				"SYSIBM  "	"XML"	" "
"PID"	"PRODUCTSUPPLIER"	"DB2ADMIN"	0	"VARCHAR "	10	0	"N"	-1			1	"SYSIBM  "	"VARCHAR"	" "
"SID"	"PRODUCTSUPPLIER"	"DB2ADMIN"	1	"VARCHAR "	10	0	"N"	-1			2	"SYSIBM  "	"VARCHAR"	" "
"LENGTH"	"USERCOLUMNS"	"DB2ADMIN"	5	"SMALLINT"	2	0	"N"	-1				"SYSIBM  "	"SMALLINT"	" "
"SCALE"	"USERCOLUMNS"	"DB2ADMIN"	6	"SMALLINT"	2	0	"N"	-1				"SYSIBM  "	"SMALLINT"	" "
"NULLS"	"USERCOLUMNS"	"DB2ADMIN"	7	"CHAR    "	1	0	"N"	-1				"SYSIBM  "	"CHARACTER"	" "
"COLCARD"	"USERCOLUMNS"	"DB2ADMIN"	8	"BIGINT  "	8	0	"N"	-1				"SYSIBM  "	"BIGINT"	" "
"REMARKS"	"USERCOLUMNS"	"DB2ADMIN"	9	"VARCHAR "	254	0	"Y"	-1				"SYSIBM  "	"VARCHAR"	" "
"DEFAULT"	"USERCOLUMNS"	"DB2ADMIN"	10	"CLOB    "	-1	0	"Y"	-1				"SYSIBM  "	"CLOB"	" "
"KEYSEQ"	"USERCOLUMNS"	"DB2ADMIN"	11	"SMALLINT"	2	0	"Y"	-1				"SYSIBM  "	"SMALLINT"	" "
"TYPESCHEMA"	"USERCOLUMNS"	"DB2ADMIN"	12	"VARCHAR "	128	0	"N"	-1				"SYSIBM  "	"VARCHAR"	" "
"TYPENAME"	"USERCOLUMNS"	"DB2ADMIN"	13	"VARCHAR "	128	0	"N"	-1				"SYSIBM  "	"VARCHAR"	" "
"HIDDEN"	"USERCOLUMNS"	"DB2ADMIN"	14	"CHAR    "	1	0	"N"	-1				"SYSIBM  "	"CHARACTER"	" "
